…
*Mutate is your best friend*

What is mutate? Mutate is a function that writes new variables.

``` r
#?mutate()
```

Here are a few examples:

``` r
pres_df %>% mutate(eleven = 11) #creates a variable for each observation with the value of 11
```

    ## # A tibble: 65 x 9
    ##    month  year approve disapprove unsure sept.oct.2001 iraq.war avg.price eleven
    ##    <dbl> <dbl>   <dbl>      <dbl>  <dbl>         <dbl>    <dbl>     <dbl>  <dbl>
    ##  1     2  2001    58.7      23.7   17.7              0        0      145.     11
    ##  2     3  2001    58        26.7   15.3              0        0      141.     11
    ##  3     4  2001    60.5      29.5   10                0        0      155.     11
    ##  4     5  2001    55        33.3   11.7              0        0      170.     11
    ##  5     6  2001    54        34     12                0        0      162.     11
    ##  6     7  2001    56.5      34      9.5              0        0      142.     11
    ##  7     8  2001    56        35      9                0        0      142.     11
    ##  8     9  2001    75.7      18.3    6                1        0      152.     11
    ##  9    10  2001    88         9      3                1        0      132.     11
    ## 10    11  2001    87         8.67   4.33             0        0      117.     11
    ## # ... with 55 more rows

``` r
pres_df %>% mutate(avg.price_levels = (avg.price/max(avg.price))) # This creates a new varaible for 'avg.price' but normalizes the maximum to 1
```

    ## # A tibble: 65 x 9
    ##    month  year approve disapprove unsure sept.oct.2001 iraq.war avg.price
    ##    <dbl> <dbl>   <dbl>      <dbl>  <dbl>         <dbl>    <dbl>     <dbl>
    ##  1     2  2001    58.7      23.7   17.7              0        0      145.
    ##  2     3  2001    58        26.7   15.3              0        0      141.
    ##  3     4  2001    60.5      29.5   10                0        0      155.
    ##  4     5  2001    55        33.3   11.7              0        0      170.
    ##  5     6  2001    54        34     12                0        0      162.
    ##  6     7  2001    56.5      34      9.5              0        0      142.
    ##  7     8  2001    56        35      9                0        0      142.
    ##  8     9  2001    75.7      18.3    6                1        0      152.
    ##  9    10  2001    88         9      3                1        0      132.
    ## 10    11  2001    87         8.67   4.33             0        0      117.
    ## # ... with 55 more rows, and 1 more variable: avg.price_levels <dbl>
…
`dplyr` also makes it easy to create add new variables using `mutate`.
Mutate takes as arguments a dataframe and then some function to use to
create a new column. Mutate will then output an **entirely new
dataframe** with your new column added on.

Let’s work through a few examples:

A column of ones:

``` r
pres_df %>% mutate(ones = 1)
```

    ## # A tibble: 65 x 10
    ##    month  year approve disapprove unsure sept.oct.2001 iraq.war avg.price
    ##    <dbl> <dbl>   <dbl>      <dbl>  <dbl>         <dbl>    <dbl>     <dbl>
    ##  1     2  2001    58.7      23.7   17.7              0        0      145.
    ##  2     3  2001    58        26.7   15.3              0        0      141.
    ##  3     4  2001    60.5      29.5   10                0        0      155.
    ##  4     5  2001    55        33.3   11.7              0        0      170.
    ##  5     6  2001    54        34     12                0        0      162.
    ##  6     7  2001    56.5      34      9.5              0        0      142.
    ##  7     8  2001    56        35      9                0        0      142.
    ##  8     9  2001    75.7      18.3    6                1        0      152.
    ##  9    10  2001    88         9      3                1        0      132.
    ## 10    11  2001    87         8.67   4.33             0        0      117.
    ## # ... with 55 more rows, and 2 more variables: year_month <dttm>, ones <dbl>
…
