…
We can also use other features of the tidyverse to look at specific
portions of our data. Let’s use the filter command. The way this works
is:

``` r
#let's filter on whether or not race is equal to white. In this dataset, that is represented by 'w'
filter(your_df, race == 'w')
```

    ## # A tibble: 2,431 x 12
    ##    first_name sex   i_callback n_jobs n_expr i_military i_computer i_female
    ##    <chr>      <chr>      <dbl>  <dbl>  <dbl>      <dbl>      <dbl>    <dbl>
    ##  1 Jill       f              0      2      5          0          1        1
    ##  2 Allison    f              0      4      8          0          1        1
    ##  3 Carrie     f              0      2      4          0          1        1
    ##  4 Geoffrey   m              0      3      4          0          1        0
    ##  5 Matthew    m              0      3      5          0          0        0
    ##  6 Jill       f              0      2      6          0          0        1
    ##  7 Todd       m              0      3      3          0          1        0
    ##  8 Allison    f              0      2      2          0          0        1
    ##  9 Carrie     f              0      3      7          0          1        1
    ## 10 Greg       m              0      3      3          0          1        0
    ## # ... with 2,421 more rows, and 4 more variables: i_male <dbl>, race <chr>,
    ## #   i_black <dbl>, i_white <dbl>
…
